{
  "web": {
    "auth_uri": "http://localhost:6556/auth",
    "client_id": "huishoudboekje",
    "client_secret": "ZwwcL2zjQyJUBnFPVoOb",
    "issuer": "http://localhost:6556",
    "redirect_uris": [
      "http://localhost:3000/api/oidc_callback"
    ],
    "token_uri": "http://localhost:6556/token",
    "token_introspection_uri": "http://localhost:6556/tokeninfo",
    "userinfo_uri": "http://localhost:6556/userinfo"
  }
}